<svg xmlns="http://www.w3.org/2000/svg" width="16.453" height="19.521" viewBox="0 0 16.453 19.521">
  <g id="Group_197" data-name="Group 197" transform="translate(-1590.27 -888.741)">
    <path id="Path_95" data-name="Path 95" d="M1598.381,898.163a4.464,4.464,0,1,0-3.154-1.307A4.314,4.314,0,0,0,1598.381,898.163Z" fill="none" stroke="#fff" stroke-width="1"/>
    <path id="Path_96" data-name="Path 96" d="M1606.186,903.484a11.169,11.169,0,0,0-.15-1.171,9.153,9.153,0,0,0-.288-1.176,5.8,5.8,0,0,0-.484-1.1,4.15,4.15,0,0,0-.729-.95,3.214,3.214,0,0,0-1.048-.659,3.635,3.635,0,0,0-1.338-.242,1.359,1.359,0,0,0-.725.308c-.217.141-.471.305-.755.487a4.351,4.351,0,0,1-.977.43,3.8,3.8,0,0,1-2.391,0,4.355,4.355,0,0,1-.977-.43c-.281-.18-.535-.344-.756-.488a1.358,1.358,0,0,0-.724-.307,3.635,3.635,0,0,0-1.338.242,3.223,3.223,0,0,0-1.048.659,4.15,4.15,0,0,0-.729.95,5.823,5.823,0,0,0-.484,1.1,9.321,9.321,0,0,0-.287,1.176,10.9,10.9,0,0,0-.151,1.171c-.024.355-.037.722-.037,1.094a3.078,3.078,0,0,0,.914,2.327,3.289,3.289,0,0,0,2.354.858h8.918a3.292,3.292,0,0,0,2.354-.858,3.076,3.076,0,0,0,.913-2.327c0-.374-.012-.742-.037-1.094Z" fill="none" stroke="#fff" stroke-width="1"/>
  </g>
</svg>
