<svg xmlns="http://www.w3.org/2000/svg" width="20.004" height="20.004" viewBox="0 0 20.004 20.004">
  <path id="search" d="M24.871,24.246,19.384,18.76a8.271,8.271,0,1,0-.624.624l5.486,5.486a.431.431,0,0,0,.624,0A.431.431,0,0,0,24.871,24.246ZM13.252,20.611a7.359,7.359,0,1,1,7.359-7.359A7.367,7.367,0,0,1,13.252,20.611Z" transform="translate(-5 -5)" fill="#fff" opacity="0.896"/>
</svg>
